<?xml version="1.0" encoding="UTF-8" standalone="no"?>
<!-- Created with Inkscape (http://www.inkscape.org/) -->

<svg
   xmlns:dc="http://purl.org/dc/elements/1.1/"
   xmlns:cc="http://creativecommons.org/ns#"
   xmlns:rdf="http://www.w3.org/1999/02/22-rdf-syntax-ns#"
   xmlns:svg="http://www.w3.org/2000/svg"
   xmlns="http://www.w3.org/2000/svg"
   xmlns:sodipodi="http://sodipodi.sourceforge.net/DTD/sodipodi-0.dtd"
   xmlns:inkscape="http://www.inkscape.org/namespaces/inkscape"
   width="210mm"
   height="297mm"
   viewBox="0 0 210 297"
   version="1.1"
   id="svg8"
   inkscape:version="0.91 r13725"
   sodipodi:docname="blocks-to-fragments.svg"
   inkscape:export-filename="C:\Users\mmansuro\Google Drive\tmp\blocks-to-fragments.png"
   inkscape:export-xdpi="300"
   inkscape:export-ydpi="300">
  <defs
     id="defs2" />
  <sodipodi:namedview
     id="base"
     pagecolor="#ffffff"
     bordercolor="#666666"
     borderopacity="1.0"
     inkscape:pageopacity="0.0"
     inkscape:pageshadow="2"
     inkscape:zoom="1.1210938"
     inkscape:cx="343.68564"
     inkscape:cy="590.37841"
     inkscape:document-units="mm"
     inkscape:current-layer="layer1"
     showgrid="false"
     inkscape:window-width="1920"
     inkscape:window-height="1062"
     inkscape:window-x="1366"
     inkscape:window-y="0"
     inkscape:window-maximized="1" />
  <metadata
     id="metadata5">
    <rdf:RDF>
      <cc:Work
         rdf:about="">
        <dc:format>image/svg+xml</dc:format>
        <dc:type
           rdf:resource="http://purl.org/dc/dcmitype/StillImage" />
        <dc:title />
      </cc:Work>
    </rdf:RDF>
  </metadata>
  <g
     inkscape:label="Layer 1"
     inkscape:groupmode="layer"
     id="layer1">
    <rect
       style="fill:none;fill-opacity:1;stroke:#000000;stroke-width:0.50029796;stroke-miterlimit:4;stroke-dasharray:none;stroke-opacity:1"
       id="rect4485"
       width="159.49969"
       height="14.499702"
       x="21.641438"
       y="43.034122" />
    <rect
       style="fill:none;fill-opacity:1;stroke:#000000;stroke-width:0.5001232;stroke-miterlimit:4;stroke-dasharray:none;stroke-opacity:1"
       id="rect4487"
       width="39.499874"
       height="14.499877"
       x="9.7912083"
       y="73.434059" />
    <rect
       style="fill:none;fill-opacity:1;stroke:#000000;stroke-width:0.5001232;stroke-miterlimit:4;stroke-dasharray:none;stroke-opacity:1"
       id="rect4487-7"
       width="39.499874"
       height="14.499877"
       x="57.691303"
       y="73.434059" />
    <rect
       style="fill:none;fill-opacity:1;stroke:#000000;stroke-width:0.5001232;stroke-miterlimit:4;stroke-dasharray:none;stroke-opacity:1"
       id="rect4487-2"
       width="39.499874"
       height="14.499877"
       x="105.39798"
       y="73.434059" />
    <rect
       style="fill:none;fill-opacity:1;stroke:#000000;stroke-width:0.5001232;stroke-miterlimit:4;stroke-dasharray:none;stroke-opacity:1"
       id="rect4487-4"
       width="39.499874"
       height="14.499877"
       x="153.4915"
       y="73.434059" />
    <path
       style="fill:none;fill-rule:evenodd;stroke:#000000;stroke-width:0.25;stroke-linecap:butt;stroke-linejoin:miter;stroke-miterlimit:4;stroke-dasharray:none;stroke-opacity:1"
       d="M 21.641437,58.512946 9.7912085,71.149449"
       id="path4516"
       inkscape:connector-curvature="0" />
    <path
       style="fill:none;fill-rule:evenodd;stroke:#000000;stroke-width:0.25;stroke-linecap:butt;stroke-linejoin:miter;stroke-miterlimit:4;stroke-dasharray:none;stroke-opacity:1"
       d="M 181.14113,58.512946 192.99136,71.14945"
       id="path4516-8"
       inkscape:connector-curvature="0" />
    <path
       style="fill:none;fill-rule:evenodd;stroke:#000000;stroke-width:0.25;stroke-linecap:butt;stroke-linejoin:miter;stroke-miterlimit:4;stroke-dasharray:none;stroke-opacity:1"
       d="m 77.44124,87.794507 v 7.295896"
       id="path4533-3"
       inkscape:connector-curvature="0" />
    <path
       style="fill:none;fill-rule:evenodd;stroke:#000000;stroke-width:0.26458332px;stroke-linecap:butt;stroke-linejoin:miter;stroke-opacity:1"
       d="m 29.7,95.090403 c 143.54144,0 143.54144,0 143.54144,0"
       id="path4577"
       inkscape:connector-curvature="0" />
    <path
       sodipodi:type="star"
       style="fill:none;fill-opacity:1;stroke:#000000;stroke-width:0.25;stroke-miterlimit:4;stroke-dasharray:none;stroke-opacity:1"
       id="path4589"
       sodipodi:sides="6"
       sodipodi:cx="101.47072"
       sodipodi:cy="120.87394"
       sodipodi:r1="23.181719"
       sodipodi:r2="20.075958"
       sodipodi:arg1="0"
       sodipodi:arg2="0.52359878"
       inkscape:flatsided="true"
       inkscape:rounded="0"
       inkscape:randomized="0"
       d="M 124.65244,120.87394 113.06158,140.9499 H 89.879859 L 78.289,120.87394 l 11.590859,-20.07596 23.181721,0 z"
       inkscape:transform-center-x="1.1225197e-006"
       inkscape:transform-center-y="-1.6077113e-006" />
    <text
       xml:space="preserve"
       style="font-style:normal;font-weight:normal;font-size:7.76111126px;line-height:125%;font-family:sans-serif;text-align:center;letter-spacing:0px;word-spacing:0px;text-anchor:middle;fill:#000000;fill-opacity:1;stroke:none;stroke-width:0.26458332px;stroke-linecap:butt;stroke-linejoin:miter;stroke-opacity:1"
       x="101.25471"
       y="112.91386"
       id="text4593"><tspan
         sodipodi:role="line"
         id="tspan4591"
         x="101.25471"
         y="112.91386"
         style="font-style:normal;font-variant:normal;font-weight:normal;font-stretch:normal;font-size:7.76111126px;font-family:'Latin Modern Math';-inkscape-font-specification:'Latin Modern Math';text-align:center;text-anchor:middle;stroke-width:0.26458332px;">Reed-</tspan><tspan
         sodipodi:role="line"
         x="101.25471"
         y="122.75547"
         style="font-style:normal;font-variant:normal;font-weight:normal;font-stretch:normal;font-size:7.76111126px;font-family:'Latin Modern Math';-inkscape-font-specification:'Latin Modern Math';text-align:center;text-anchor:middle;stroke-width:0.26458332px;"
         id="tspan4595">Solomonovy</tspan><tspan
         sodipodi:role="line"
         x="101.25471"
         y="132.59708"
         style="font-style:normal;font-variant:normal;font-weight:normal;font-stretch:normal;font-size:7.76111126px;font-family:'Latin Modern Math';-inkscape-font-specification:'Latin Modern Math';text-align:center;text-anchor:middle;stroke-width:0.26458332px;"
         id="tspan4597">kódy</tspan></text>
    <path
       style="fill:none;fill-rule:evenodd;stroke:#000000;stroke-width:0.25;stroke-linecap:butt;stroke-linejoin:miter;stroke-miterlimit:4;stroke-dasharray:none;stroke-opacity:1"
       d="M 101.47072,100.75104 V 95.039203"
       id="path4599"
       inkscape:connector-curvature="0" />
    <path
       style="fill:none;fill-rule:evenodd;stroke:#000000;stroke-width:0.25;stroke-linecap:butt;stroke-linejoin:miter;stroke-miterlimit:4;stroke-dasharray:none;stroke-opacity:1"
       d="m 101.47072,146.64762 v -5.71184"
       id="path4599-2"
       inkscape:connector-curvature="0" />
    <rect
       style="fill:none;fill-opacity:1;stroke:#000000;stroke-width:0.5001232;stroke-miterlimit:4;stroke-dasharray:none;stroke-opacity:1"
       id="rect4487-8"
       width="39.499874"
       height="14.499877"
       x="8.1757412"
       y="153.8316" />
    <rect
       style="fill:none;fill-opacity:1;stroke:#000000;stroke-width:0.5001232;stroke-miterlimit:4;stroke-dasharray:none;stroke-opacity:1"
       id="rect4487-81"
       width="39.499874"
       height="14.499877"
       x="-39.724407"
       y="153.8316" />
    <rect
       style="fill:none;fill-opacity:1;stroke:#000000;stroke-width:0.5001232;stroke-miterlimit:4;stroke-dasharray:none;stroke-opacity:1"
       id="rect4487-89"
       width="39.499874"
       height="14.499877"
       x="56.07584"
       y="153.8316" />
    <rect
       style="fill:none;fill-opacity:1;stroke:#000000;stroke-width:0.5001232;stroke-miterlimit:4;stroke-dasharray:none;stroke-opacity:1"
       id="rect4487-5"
       width="39.499874"
       height="14.499877"
       x="103.97594"
       y="153.8316" />
    <path
       style="fill:none;fill-rule:evenodd;stroke:#000000;stroke-width:0.25;stroke-linecap:butt;stroke-linejoin:miter;stroke-miterlimit:4;stroke-dasharray:none;stroke-opacity:1"
       d="m -20.097004,146.67645 c 239.748044,0 239.748044,0 239.748044,0"
       id="path4577-4"
       inkscape:connector-curvature="0" />
    <text
       xml:space="preserve"
       style="font-style:normal;font-weight:normal;font-size:10.58333302px;line-height:125%;font-family:sans-serif;letter-spacing:0px;word-spacing:0px;fill:#000000;fill-opacity:1;stroke:none;stroke-width:0.26458332px;stroke-linecap:butt;stroke-linejoin:miter;stroke-opacity:1"
       x="96.863396"
       y="52.923088"
       id="text4678"><tspan
         sodipodi:role="line"
         id="tspan4676"
         x="96.863396"
         y="52.923088"
         style="font-style:normal;font-variant:normal;font-weight:normal;font-stretch:normal;font-family:'Latin Modern Math';-inkscape-font-specification:'Latin Modern Math';stroke-width:0.26458332px;">b<tspan
   style="font-style:normal;font-variant:normal;font-weight:normal;font-stretch:normal;font-size:6.3499999px;font-family:'Latin Modern Math';-inkscape-font-specification:'Latin Modern Math';baseline-shift:sub;"
   id="tspan4680">1</tspan></tspan></text>
    <text
       xml:space="preserve"
       style="font-style:normal;font-weight:normal;font-size:10.58333302px;line-height:125%;font-family:sans-serif;letter-spacing:0px;word-spacing:0px;fill:#000000;fill-opacity:1;stroke:none;stroke-width:0.26458332px;stroke-linecap:butt;stroke-linejoin:miter;stroke-opacity:1"
       x="26.225069"
       y="83.336029"
       id="text4678-1"><tspan
         sodipodi:role="line"
         id="tspan4676-4"
         x="26.225069"
         y="83.336029"
         style="font-style:normal;font-variant:normal;font-weight:normal;font-stretch:normal;font-family:'Latin Modern Math';-inkscape-font-specification:'Latin Modern Math';stroke-width:0.26458332px;">f<tspan
   style="font-style:normal;font-variant:normal;font-weight:normal;font-stretch:normal;font-size:6.3499999px;font-family:'Latin Modern Math';-inkscape-font-specification:'Latin Modern Math';baseline-shift:sub;stroke-width:0.26458332px;"
   id="tspan4680-3">11</tspan></tspan></text>
    <text
       xml:space="preserve"
       style="font-style:normal;font-weight:normal;font-size:10.58333302px;line-height:125%;font-family:sans-serif;letter-spacing:0px;word-spacing:0px;fill:#000000;fill-opacity:1;stroke:none;stroke-width:0.26458332px;stroke-linecap:butt;stroke-linejoin:miter;stroke-opacity:1"
       x="74.132912"
       y="83.336029"
       id="text4678-1-3"><tspan
         sodipodi:role="line"
         id="tspan4676-4-2"
         x="74.132912"
         y="83.336029"
         style="font-style:normal;font-variant:normal;font-weight:normal;font-stretch:normal;font-family:'Latin Modern Math';-inkscape-font-specification:'Latin Modern Math';stroke-width:0.26458332px;">f<tspan
   style="font-style:normal;font-variant:normal;font-weight:normal;font-stretch:normal;font-size:6.3499999px;font-family:'Latin Modern Math';-inkscape-font-specification:'Latin Modern Math';baseline-shift:sub;stroke-width:0.26458332px;"
   id="tspan4680-3-7">12</tspan></tspan></text>
    <text
       xml:space="preserve"
       style="font-style:normal;font-weight:normal;font-size:10.58333302px;line-height:125%;font-family:sans-serif;letter-spacing:0px;word-spacing:0px;fill:#000000;fill-opacity:1;stroke:none;stroke-width:0.26458332px;stroke-linecap:butt;stroke-linejoin:miter;stroke-opacity:1"
       x="122.03146"
       y="83.311226"
       id="text4678-1-8"><tspan
         sodipodi:role="line"
         id="tspan4676-4-9"
         x="122.03146"
         y="83.311226"
         style="font-style:normal;font-variant:normal;font-weight:normal;font-stretch:normal;font-family:'Latin Modern Math';-inkscape-font-specification:'Latin Modern Math';stroke-width:0.26458332px;">f<tspan
   style="font-style:normal;font-variant:normal;font-weight:normal;font-stretch:normal;font-size:6.3499999px;font-family:'Latin Modern Math';-inkscape-font-specification:'Latin Modern Math';baseline-shift:sub;stroke-width:0.26458332px;"
   id="tspan4680-3-78">13</tspan></tspan></text>
    <text
       xml:space="preserve"
       style="font-style:normal;font-weight:normal;font-size:10.58333302px;line-height:125%;font-family:sans-serif;letter-spacing:0px;word-spacing:0px;fill:#000000;fill-opacity:1;stroke:none;stroke-width:0.26458332px;stroke-linecap:butt;stroke-linejoin:miter;stroke-opacity:1"
       x="169.79669"
       y="83.336029"
       id="text4678-1-9"><tspan
         sodipodi:role="line"
         id="tspan4676-4-0"
         x="169.79669"
         y="83.336029"
         style="font-style:normal;font-variant:normal;font-weight:normal;font-stretch:normal;font-family:'Latin Modern Math';-inkscape-font-specification:'Latin Modern Math';stroke-width:0.26458332px;">f<tspan
   style="font-style:normal;font-variant:normal;font-weight:normal;font-stretch:normal;font-size:6.3499999px;font-family:'Latin Modern Math';-inkscape-font-specification:'Latin Modern Math';baseline-shift:sub;stroke-width:0.26458332px;"
   id="tspan4680-3-8">14</tspan></tspan></text>
    <text
       xml:space="preserve"
       style="font-style:normal;font-weight:normal;font-size:10.58333302px;line-height:125%;font-family:sans-serif;letter-spacing:0px;word-spacing:0px;fill:#000000;fill-opacity:1;stroke:none;stroke-width:0.26458332px;stroke-linecap:butt;stroke-linejoin:miter;stroke-opacity:1"
       x="-23.290546"
       y="163.73358"
       id="text4678-1-7"><tspan
         sodipodi:role="line"
         id="tspan4676-4-8"
         x="-23.290546"
         y="163.73358"
         style="font-style:normal;font-variant:normal;font-weight:normal;font-stretch:normal;font-family:'Latin Modern Math';-inkscape-font-specification:'Latin Modern Math';stroke-width:0.26458332px;">f<tspan
   style="font-style:normal;font-variant:normal;font-weight:normal;font-stretch:normal;font-size:6.3499999px;font-family:'Latin Modern Math';-inkscape-font-specification:'Latin Modern Math';baseline-shift:sub;stroke-width:0.26458332px;"
   id="tspan4680-3-9">11</tspan></tspan></text>
    <text
       xml:space="preserve"
       style="font-style:normal;font-weight:normal;font-size:10.58333302px;line-height:125%;font-family:sans-serif;letter-spacing:0px;word-spacing:0px;fill:#000000;fill-opacity:1;stroke:none;stroke-width:0.26458332px;stroke-linecap:butt;stroke-linejoin:miter;stroke-opacity:1"
       x="24.617353"
       y="163.73358"
       id="text4678-1-0"><tspan
         sodipodi:role="line"
         id="tspan4676-4-03"
         x="24.617353"
         y="163.73358"
         style="font-style:normal;font-variant:normal;font-weight:normal;font-stretch:normal;font-family:'Latin Modern Math';-inkscape-font-specification:'Latin Modern Math';stroke-width:0.26458332px;">f<tspan
   style="font-style:normal;font-variant:normal;font-weight:normal;font-stretch:normal;font-size:6.3499999px;font-family:'Latin Modern Math';-inkscape-font-specification:'Latin Modern Math';baseline-shift:sub;stroke-width:0.26458332px;"
   id="tspan4680-3-1">12</tspan></tspan></text>
    <text
       xml:space="preserve"
       style="font-style:normal;font-weight:normal;font-size:10.58333302px;line-height:125%;font-family:sans-serif;letter-spacing:0px;word-spacing:0px;fill:#000000;fill-opacity:1;stroke:none;stroke-width:0.26458332px;stroke-linecap:butt;stroke-linejoin:miter;stroke-opacity:1"
       x="72.515907"
       y="163.70877"
       id="text4678-1-88"><tspan
         sodipodi:role="line"
         id="tspan4676-4-7"
         x="72.515907"
         y="163.70877"
         style="font-style:normal;font-variant:normal;font-weight:normal;font-stretch:normal;font-family:'Latin Modern Math';-inkscape-font-specification:'Latin Modern Math';stroke-width:0.26458332px;">f<tspan
   style="font-style:normal;font-variant:normal;font-weight:normal;font-stretch:normal;font-size:6.3499999px;font-family:'Latin Modern Math';-inkscape-font-specification:'Latin Modern Math';baseline-shift:sub;stroke-width:0.26458332px;"
   id="tspan4680-3-5">13</tspan></tspan></text>
    <text
       xml:space="preserve"
       style="font-style:normal;font-weight:normal;font-size:10.58333302px;line-height:125%;font-family:sans-serif;letter-spacing:0px;word-spacing:0px;fill:#000000;fill-opacity:1;stroke:none;stroke-width:0.26458332px;stroke-linecap:butt;stroke-linejoin:miter;stroke-opacity:1"
       x="120.28112"
       y="163.73358"
       id="text4678-1-4"><tspan
         sodipodi:role="line"
         id="tspan4676-4-1"
         x="120.28112"
         y="163.73358"
         style="font-style:normal;font-variant:normal;font-weight:normal;font-stretch:normal;font-family:'Latin Modern Math';-inkscape-font-specification:'Latin Modern Math';stroke-width:0.26458332px;">f<tspan
   style="font-style:normal;font-variant:normal;font-weight:normal;font-stretch:normal;font-size:6.3499999px;font-family:'Latin Modern Math';-inkscape-font-specification:'Latin Modern Math';baseline-shift:sub;stroke-width:0.26458332px;"
   id="tspan4680-3-73">14</tspan></tspan></text>
    <text
       xml:space="preserve"
       style="font-style:normal;font-weight:normal;font-size:10.58333302px;line-height:125%;font-family:sans-serif;letter-spacing:0px;word-spacing:0px;fill:#000000;fill-opacity:1;stroke:none;stroke-width:0.26458332px;stroke-linecap:butt;stroke-linejoin:miter;stroke-opacity:1"
       x="168.29904"
       y="163.70877"
       id="text4678-1-5"><tspan
         sodipodi:role="line"
         id="tspan4676-4-01"
         x="168.29904"
         y="163.70877"
         style="font-style:normal;font-variant:normal;font-weight:normal;font-stretch:normal;font-family:'Latin Modern Math';-inkscape-font-specification:'Latin Modern Math';stroke-width:0.26458332px;">f<tspan
   style="font-style:normal;font-variant:normal;font-weight:normal;font-stretch:normal;font-size:6.3499999px;font-family:'Latin Modern Math';-inkscape-font-specification:'Latin Modern Math';baseline-shift:sub;stroke-width:0.26458332px;"
   id="tspan4680-3-80">15</tspan></tspan></text>
    <text
       xml:space="preserve"
       style="font-style:normal;font-weight:normal;font-size:10.58333302px;line-height:125%;font-family:sans-serif;letter-spacing:0px;word-spacing:0px;fill:#000000;fill-opacity:1;stroke:none;stroke-width:0.26458332px;stroke-linecap:butt;stroke-linejoin:miter;stroke-opacity:1"
       x="216.11644"
       y="163.70877"
       id="text4678-1-71"><tspan
         sodipodi:role="line"
         id="tspan4676-4-84"
         x="216.11644"
         y="163.70877"
         style="font-style:normal;font-variant:normal;font-weight:normal;font-stretch:normal;font-family:'Latin Modern Math';-inkscape-font-specification:'Latin Modern Math';stroke-width:0.26458332px;">f<tspan
   style="font-style:normal;font-variant:normal;font-weight:normal;font-stretch:normal;font-size:6.3499999px;font-family:'Latin Modern Math';-inkscape-font-specification:'Latin Modern Math';baseline-shift:sub;stroke-width:0.26458332px;"
   id="tspan4680-3-6">16</tspan></tspan></text>
    <rect
       style="fill:none;fill-opacity:1;stroke:#000000;stroke-width:0.5001232;stroke-miterlimit:4;stroke-dasharray:none;stroke-opacity:1"
       id="rect4487-0"
       width="39.499874"
       height="14.499877"
       x="199.7756"
       y="153.8316" />
    <rect
       style="fill:none;fill-opacity:1;stroke:#000000;stroke-width:0.5001232;stroke-miterlimit:4;stroke-dasharray:none;stroke-opacity:1"
       id="rect4487-06"
       width="39.499874"
       height="14.499877"
       x="151.87604"
       y="153.8316" />
    <text
       xml:space="preserve"
       style="font-style:normal;font-variant:normal;font-weight:normal;font-stretch:normal;font-size:8.46666622px;line-height:125%;font-family:'Latin Modern Math';-inkscape-font-specification:'Latin Modern Math';letter-spacing:0px;word-spacing:0px;fill:#000000;fill-opacity:1;stroke:none;stroke-width:0.26458332px;stroke-linecap:butt;stroke-linejoin:miter;stroke-opacity:1;"
       x="163.53017"
       y="176.46812"
       id="text8862"><tspan
         sodipodi:role="line"
         id="tspan8860"
         x="163.53017"
         y="176.46812"
         style="font-style:normal;font-variant:normal;font-weight:normal;font-stretch:normal;font-size:8.46666622px;font-family:'Latin Modern Math';-inkscape-font-specification:'Latin Modern Math';stroke-width:0.26458332px;">paritní fragmenty</tspan></text>
    <rect
       style="fill:none;fill-opacity:1;stroke:#000000;stroke-width:0.25;stroke-miterlimit:4;stroke-dasharray:2,2;stroke-dashoffset:0;stroke-opacity:1"
       id="rect8872"
       width="92.081444"
       height="28.642672"
       x="149.53503"
       y="151.4268" />
    <path
       style="fill:none;fill-rule:evenodd;stroke:#000000;stroke-width:0.25;stroke-linecap:butt;stroke-linejoin:miter;stroke-miterlimit:4;stroke-dasharray:none;stroke-opacity:1"
       d="m 125.14792,87.794507 v 7.295896"
       id="path4533-3-2"
       inkscape:connector-curvature="0" />
    <path
       style="fill:none;fill-rule:evenodd;stroke:#000000;stroke-width:0.25;stroke-linecap:butt;stroke-linejoin:miter;stroke-miterlimit:4;stroke-dasharray:none;stroke-opacity:1"
       d="m 173.24144,87.794507 v 7.295896"
       id="path4533-3-3"
       inkscape:connector-curvature="0" />
    <path
       style="fill:none;fill-rule:evenodd;stroke:#000000;stroke-width:0.25;stroke-linecap:butt;stroke-linejoin:miter;stroke-miterlimit:4;stroke-dasharray:none;stroke-opacity:1"
       d="m 29.541145,87.794507 v 7.295896"
       id="path4533-3-06"
       inkscape:connector-curvature="0" />
    <path
       style="fill:none;fill-rule:evenodd;stroke:#000000;stroke-width:0.25;stroke-linecap:butt;stroke-linejoin:miter;stroke-miterlimit:4;stroke-dasharray:none;stroke-opacity:1"
       d="m -19.97447,146.67645 v 7.29589"
       id="path4533-3-06-3"
       inkscape:connector-curvature="0" />
    <path
       style="fill:none;fill-rule:evenodd;stroke:#000000;stroke-width:0.25;stroke-linecap:butt;stroke-linejoin:miter;stroke-miterlimit:4;stroke-dasharray:none;stroke-opacity:1"
       d="m 27.925678,146.67645 v 7.29589"
       id="path4533-3-06-3-2"
       inkscape:connector-curvature="0" />
    <path
       style="fill:none;fill-rule:evenodd;stroke:#000000;stroke-width:0.25;stroke-linecap:butt;stroke-linejoin:miter;stroke-miterlimit:4;stroke-dasharray:none;stroke-opacity:1"
       d="m 75.825777,146.67645 v 7.29589"
       id="path4533-3-06-3-1"
       inkscape:connector-curvature="0" />
    <path
       style="fill:none;fill-rule:evenodd;stroke:#000000;stroke-width:0.25;stroke-linecap:butt;stroke-linejoin:miter;stroke-miterlimit:4;stroke-dasharray:none;stroke-opacity:1"
       d="m 123.72587,146.67645 v 7.29589"
       id="path4533-3-06-3-0"
       inkscape:connector-curvature="0" />
    <path
       style="fill:none;fill-rule:evenodd;stroke:#000000;stroke-width:0.25;stroke-linecap:butt;stroke-linejoin:miter;stroke-miterlimit:4;stroke-dasharray:none;stroke-opacity:1"
       d="m 171.62597,146.67645 v 7.29589"
       id="path4533-3-06-3-4"
       inkscape:connector-curvature="0" />
    <path
       style="fill:none;fill-rule:evenodd;stroke:#000000;stroke-width:0.25;stroke-linecap:butt;stroke-linejoin:miter;stroke-miterlimit:4;stroke-dasharray:none;stroke-opacity:1"
       d="m 219.52554,146.67645 v 7.29589"
       id="path4533-3-06-3-6"
       inkscape:connector-curvature="0" />
  </g>
</svg>
