<?xml version="1.0" encoding="UTF-8" standalone="no"?>
<!-- Created with Inkscape (http://www.inkscape.org/) -->

<svg
   xmlns:dc="http://purl.org/dc/elements/1.1/"
   xmlns:cc="http://creativecommons.org/ns#"
   xmlns:rdf="http://www.w3.org/1999/02/22-rdf-syntax-ns#"
   xmlns:svg="http://www.w3.org/2000/svg"
   xmlns="http://www.w3.org/2000/svg"
   xmlns:sodipodi="http://sodipodi.sourceforge.net/DTD/sodipodi-0.dtd"
   xmlns:inkscape="http://www.inkscape.org/namespaces/inkscape"
   width="210mm"
   height="297mm"
   viewBox="0 0 744.09448819 1052.3622047"
   id="svg17417"
   version="1.1"
   inkscape:version="0.91 r13725"
   sodipodi:docname="pstore-backup-overview.svg">
  <defs
     id="defs17419">
    <marker
       inkscape:isstock="true"
       style="overflow:visible;"
       id="marker6205"
       refX="0.0"
       refY="0.0"
       orient="auto"
       inkscape:stockid="Arrow2Lend">
      <path
         transform="scale(1.1) rotate(180) translate(1,0)"
         d="M 8.7185878,4.0337352 L -2.2072895,0.016013256 L 8.7185884,-4.0017078 C 6.9730900,-1.6296469 6.9831476,1.6157441 8.7185878,4.0337352 z "
         style="fill-rule:evenodd;stroke-width:0.625;stroke-linejoin:round;stroke:#000000;stroke-opacity:1;fill:#000000;fill-opacity:1"
         id="path6207" />
    </marker>
    <marker
       inkscape:stockid="Arrow2Lend"
       orient="auto"
       refY="0.0"
       refX="0.0"
       id="Arrow2Lend"
       style="overflow:visible;"
       inkscape:isstock="true"
       inkscape:collect="always">
      <path
         id="path5806"
         style="fill-rule:evenodd;stroke-width:0.625;stroke-linejoin:round;stroke:#000000;stroke-opacity:1;fill:#000000;fill-opacity:1"
         d="M 8.7185878,4.0337352 L -2.2072895,0.016013256 L 8.7185884,-4.0017078 C 6.9730900,-1.6296469 6.9831476,1.6157441 8.7185878,4.0337352 z "
         transform="scale(1.1) rotate(180) translate(1,0)" />
    </marker>
    <marker
       inkscape:stockid="Arrow1Lend"
       orient="auto"
       refY="0.0"
       refX="0.0"
       id="Arrow1Lend"
       style="overflow:visible;"
       inkscape:isstock="true">
      <path
         id="path5788"
         d="M 0.0,0.0 L 5.0,-5.0 L -12.5,0.0 L 5.0,5.0 L 0.0,0.0 z "
         style="fill-rule:evenodd;stroke:#000000;stroke-width:1pt;stroke-opacity:1;fill:#000000;fill-opacity:1"
         transform="scale(0.8) rotate(180) translate(12.5,0)" />
    </marker>
    <marker
       inkscape:isstock="true"
       style="overflow:visible"
       id="marker6093"
       refX="0.0"
       refY="0.0"
       orient="auto"
       inkscape:stockid="Arrow2Lstart">
      <path
         transform="scale(1.1) translate(1,0)"
         d="M 8.7185878,4.0337352 L -2.2072895,0.016013256 L 8.7185884,-4.0017078 C 6.9730900,-1.6296469 6.9831476,1.6157441 8.7185878,4.0337352 z "
         style="fill-rule:evenodd;stroke-width:0.625;stroke-linejoin:round;stroke:#000000;stroke-opacity:1;fill:#000000;fill-opacity:1"
         id="path6095" />
    </marker>
    <marker
       inkscape:stockid="Arrow1Lstart"
       orient="auto"
       refY="0.0"
       refX="0.0"
       id="Arrow1Lstart"
       style="overflow:visible"
       inkscape:isstock="true">
      <path
         id="path5785"
         d="M 0.0,0.0 L 5.0,-5.0 L -12.5,0.0 L 5.0,5.0 L 0.0,0.0 z "
         style="fill-rule:evenodd;stroke:#000000;stroke-width:1pt;stroke-opacity:1;fill:#000000;fill-opacity:1"
         transform="scale(0.8) translate(12.5,0)" />
    </marker>
  </defs>
  <sodipodi:namedview
     id="base"
     pagecolor="#ffffff"
     bordercolor="#666666"
     borderopacity="1.0"
     inkscape:pageopacity="0.0"
     inkscape:pageshadow="2"
     inkscape:zoom="1.4"
     inkscape:cx="273.05999"
     inkscape:cy="835.25943"
     inkscape:document-units="px"
     inkscape:current-layer="layer1"
     showgrid="false"
     inkscape:window-width="1920"
     inkscape:window-height="1062"
     inkscape:window-x="1366"
     inkscape:window-y="0"
     inkscape:window-maximized="1"
     inkscape:snap-midpoints="true" />
  <metadata
     id="metadata17422">
    <rdf:RDF>
      <cc:Work
         rdf:about="">
        <dc:format>image/svg+xml</dc:format>
        <dc:type
           rdf:resource="http://purl.org/dc/dcmitype/StillImage" />
        <dc:title />
      </cc:Work>
    </rdf:RDF>
  </metadata>
  <g
     inkscape:label="Layer 1"
     inkscape:groupmode="layer"
     id="layer1">
    <rect
       style="fill:none;fill-opacity:1;stroke:#000000;stroke-width:1.77165354;stroke-miterlimit:4.0062499;stroke-dasharray:none"
       id="rect3001"
       width="553.17047"
       height="39.856743"
       x="103.80173"
       y="67.176414" />
    <path
       style="fill:none;stroke:#000000;stroke-width:0.88582677;stroke-linecap:butt;stroke-linejoin:miter;stroke-miterlimit:4.0062499;stroke-dasharray:none;stroke-opacity:1"
       d="M 100.49574,108.11995 60.606325,148.00936"
       id="path3003"
       inkscape:connector-curvature="0" />
    <path
       inkscape:connector-curvature="0"
       id="path3005"
       d="m 660.08053,108.11995 39.88943,39.88941"
       style="fill:none;stroke:#000000;stroke-width:0.88582677;stroke-linecap:butt;stroke-linejoin:miter;stroke-miterlimit:4.0062499;stroke-dasharray:none;stroke-opacity:1" />
    <rect
       style="fill:none;fill-opacity:1;stroke:#000000;stroke-width:1.77165354;stroke-miterlimit:4.0062499;stroke-dasharray:none"
       id="rect3007"
       width="39.855797"
       height="39.855797"
       x="65.852142"
       y="154.93634" />
    <rect
       y="154.93634"
       x="111.70845"
       height="39.855797"
       width="39.855797"
       id="rect3009"
       style="fill:none;fill-opacity:1;stroke:#000000;stroke-width:1.77165354;stroke-miterlimit:4.0062499;stroke-dasharray:none" />
    <rect
       style="fill:none;fill-opacity:1;stroke:#000000;stroke-width:1.77165354;stroke-miterlimit:4.0062499;stroke-dasharray:none"
       id="rect3015"
       width="39.855797"
       height="39.855797"
       x="320.43362"
       y="154.93634" />
    <rect
       y="154.93634"
       x="365.49933"
       height="39.855797"
       width="39.855797"
       id="rect3017"
       style="fill:none;fill-opacity:1;stroke:#000000;stroke-width:1.77165354;stroke-miterlimit:4.0062499;stroke-dasharray:none" />
    <rect
       style="fill:none;fill-opacity:1;stroke:#000000;stroke-width:1.77165354;stroke-miterlimit:4.0062499;stroke-dasharray:none"
       id="rect3019"
       width="138.16473"
       height="39.929474"
       x="424.7594"
       y="154.10901" />
    <rect
       style="fill:#b3b3b3;fill-opacity:1;stroke:#000000;stroke-width:1.77165354;stroke-miterlimit:4.0062499;stroke-dasharray:none"
       id="rect3021"
       width="138.05577"
       height="39.82053"
       x="562.38275"
       y="154.16348" />
    <path
       style="fill:none;stroke:#000000;stroke-width:0.88582677;stroke-linecap:butt;stroke-linejoin:miter;stroke-miterlimit:4.0041666;stroke-dasharray:none;stroke-opacity:1"
       d="m 85.009932,194.7883 0,68.42345 140.574058,55.29095"
       id="path6130"
       inkscape:connector-curvature="0" />
    <ellipse
       ry="43.794071"
       rx="164.44618"
       cy="335.91473"
       cx="380.38699"
       style="fill:none;fill-opacity:1;stroke:#000000;stroke-width:1.73583972;stroke-miterlimit:4.0062499;stroke-dasharray:1.7358397, 6.94335882000000026;stroke-dashoffset:0"
       id="path6132" />
    <path
       inkscape:connector-curvature="0"
       id="path6145"
       d="m 572.99564,194.13994 0,67.68451 -42.49693,54.69387"
       style="fill:none;stroke:#000000;stroke-width:0.88582677;stroke-linecap:butt;stroke-linejoin:miter;stroke-miterlimit:4.0041666;stroke-dasharray:none;stroke-opacity:1" />
    <path
       style="fill:none;stroke:#000000;stroke-width:0.88582677;stroke-linecap:butt;stroke-linejoin:miter;stroke-miterlimit:4.0041666;stroke-dasharray:none;stroke-dashoffset:0;stroke-opacity:1"
       d="m 19.999981,238.27244 691.006959,0"
       id="path6147"
       inkscape:connector-curvature="0" />
    <path
       style="fill:none;stroke:#000000;stroke-width:0.88582677;stroke-linecap:butt;stroke-linejoin:miter;stroke-miterlimit:4.0041666;stroke-dasharray:none;stroke-opacity:1"
       d="m 131.39792,195.32385 0,62.08461 121.27586,50.16874"
       id="path6130-7"
       inkscape:connector-curvature="0" />
    <text
       sodipodi:linespacing="0%"
       xml:space="preserve"
       style="font-style:normal;font-variant:normal;font-weight:normal;font-stretch:normal;font-size:3.32062817px;line-height:0%;font-family:'TeX Gyre Termes Math';-inkscape-font-specification:'TeX Gyre Termes Math';letter-spacing:0px;word-spacing:0px;fill:#000000;fill-opacity:1;stroke:none"
       x="347.90854"
       y="92.203201"
       id="text6175"><tspan
         sodipodi:role="line"
         x="347.90854"
         y="92.203201"
         id="tspan6179"
         style="font-style:normal;font-variant:normal;font-weight:normal;font-stretch:normal;font-size:20px;line-height:1.25;font-family:'Latin Modern Math';-inkscape-font-specification:'Latin Modern Math';">Soubor.txt</tspan></text>
    <text
       sodipodi:linespacing="0%"
       xml:space="preserve"
       style="font-style:normal;font-variant:normal;font-weight:normal;font-stretch:normal;font-size:3.32062817px;line-height:0%;font-family:'TeX Gyre Termes Math';-inkscape-font-specification:'TeX Gyre Termes Math';text-align:center;letter-spacing:0px;word-spacing:0px;text-anchor:middle;fill:#000000;fill-opacity:1;stroke:none"
       x="380.3837"
       y="327.76474"
       id="text6183"><tspan
         sodipodi:role="line"
         id="tspan6185"
         x="380.3837"
         y="327.76474"
         style="font-style:normal;font-variant:normal;font-weight:normal;font-stretch:normal;font-size:20px;line-height:1.25;font-family:'Latin Modern Math';-inkscape-font-specification:'Latin Modern Math'">DHT</tspan><tspan
         sodipodi:role="line"
         x="380.3837"
         y="352.76474"
         id="tspan6187"
         style="font-style:normal;font-variant:normal;font-weight:normal;font-stretch:normal;font-size:20px;line-height:1.25;font-family:'Latin Modern Math';-inkscape-font-specification:'Latin Modern Math'">(Distribuovaná hašovací tabulka)</tspan></text>
    <text
       sodipodi:linespacing="0%"
       xml:space="preserve"
       style="font-style:normal;font-variant:normal;font-weight:normal;font-stretch:normal;font-size:3.32062817px;line-height:0%;font-family:'TeX Gyre Termes Math';-inkscape-font-specification:'TeX Gyre Termes Math';letter-spacing:0px;word-spacing:0px;fill:#000000;fill-opacity:1;stroke:none"
       x="23.953129"
       y="224.04118"
       id="text6189"><tspan
         sodipodi:role="line"
         id="tspan6191"
         x="23.953129"
         y="224.04118"
         style="font-style:normal;font-variant:normal;font-weight:normal;font-stretch:normal;font-size:20px;line-height:1.25;font-family:'Latin Modern Math';-inkscape-font-specification:'Latin Modern Math';">pStore</tspan></text>
    <text
       sodipodi:linespacing="0%"
       xml:space="preserve"
       style="font-style:normal;font-variant:normal;font-weight:normal;font-stretch:normal;font-size:3.32062817px;line-height:0%;font-family:'TeX Gyre Termes Math';-inkscape-font-specification:'TeX Gyre Termes Math';letter-spacing:0px;word-spacing:0px;fill:#000000;fill-opacity:1;stroke:none"
       x="24.336863"
       y="261.20056"
       id="text6193"><tspan
         sodipodi:role="line"
         id="tspan6195"
         x="24.336863"
         y="261.20056"
         style="font-style:normal;font-variant:normal;font-weight:normal;font-stretch:normal;font-size:20px;line-height:1.25;font-family:'Latin Modern Math';-inkscape-font-specification:'Latin Modern Math';">Chord</tspan></text>
    <text
       sodipodi:linespacing="0%"
       xml:space="preserve"
       style="font-style:normal;font-variant:normal;font-weight:normal;font-stretch:normal;font-size:3.32062817px;line-height:0%;font-family:'TeX Gyre Termes Math';-inkscape-font-specification:'TeX Gyre Termes Math';letter-spacing:0px;word-spacing:0px;fill:#000000;fill-opacity:1;stroke:none"
       x="169.56976"
       y="217.97241"
       id="text6197"><tspan
         sodipodi:role="line"
         x="169.56976"
         y="217.97241"
         id="tspan6201"
         style="font-style:normal;font-variant:normal;font-weight:normal;font-stretch:normal;font-size:20px;line-height:1.25;font-family:'Latin Modern Math';-inkscape-font-specification:'Latin Modern Math'">Množina bloků</tspan></text>
    <text
       sodipodi:linespacing="0%"
       xml:space="preserve"
       style="font-style:normal;font-variant:normal;font-weight:normal;font-stretch:normal;font-size:17.5px;line-height:0%;font-family:'TeX Gyre Termes Math';-inkscape-font-specification:'TeX Gyre Termes Math';letter-spacing:0px;word-spacing:0px;fill:#000000;fill-opacity:1;stroke:none"
       x="440.30624"
       y="180.05"
       id="text6205"><tspan
         sodipodi:role="line"
         id="tspan6207"
         x="440.30624"
         y="180.05"
         style="font-style:normal;font-variant:normal;font-weight:normal;font-stretch:normal;font-size:17.5px;line-height:1.25;font-family:'Latin Modern Math';-inkscape-font-specification:'Latin Modern Math'">Seznam bloků</tspan></text>
    <text
       sodipodi:linespacing="0%"
       xml:space="preserve"
       style="font-style:normal;font-variant:normal;font-weight:normal;font-stretch:normal;font-size:17.5px;line-height:0%;font-family:'TeX Gyre Termes Math';-inkscape-font-specification:'TeX Gyre Termes Math';text-align:center;letter-spacing:0px;word-spacing:0px;text-anchor:middle;fill:#000000;fill-opacity:1;stroke:none"
       x="631.41937"
       y="169.20874"
       id="text6209"><tspan
         sodipodi:role="line"
         x="631.41937"
         y="169.20874"
         id="tspan6213"
         style="font-style:normal;font-variant:normal;font-weight:normal;font-stretch:normal;font-size:17.5px;line-height:1.25;font-family:'Latin Modern Math';-inkscape-font-specification:'Latin Modern Math';text-align:center;text-anchor:middle">Informace o</tspan><tspan
         sodipodi:role="line"
         x="631.41937"
         y="191.08374"
         style="font-style:normal;font-variant:normal;font-weight:normal;font-stretch:normal;font-size:17.5px;line-height:1.25;font-family:'Latin Modern Math';-inkscape-font-specification:'Latin Modern Math';text-align:center;text-anchor:middle"
         id="tspan18100">souboru</tspan></text>
    <g
       transform="matrix(0.27671902,0,0,0.27671902,316.48465,60.913915)"
       id="g7798"
       style="stroke-width:6.4023555;stroke-miterlimit:4.0062499;stroke-dasharray:none;fill:none">
      <rect
         y="339.77582"
         x="-577.15778"
         height="144.02985"
         width="144.02985"
         id="rect3011"
         style="fill:none;fill-opacity:1;stroke:#000000;stroke-width:6.4023555;stroke-miterlimit:4.0062499;stroke-dasharray:none" />
      <rect
         style="fill:none;fill-opacity:1;stroke:#000000;stroke-width:6.4023555;stroke-miterlimit:4.0062499;stroke-dasharray:none"
         id="rect3013"
         width="144.02985"
         height="144.02985"
         x="-151.44353"
         y="339.77582" />
      <text
         sodipodi:linespacing="0%"
         id="text6217"
         y="414.28275"
         x="-336.81503"
         style="font-style:normal;font-variant:normal;font-weight:normal;font-stretch:normal;line-height:0%;font-family:'TeX Gyre Termes Math';-inkscape-font-specification:'TeX Gyre Termes Math';letter-spacing:0px;word-spacing:0px;fill:none;fill-opacity:1;stroke:none;stroke-width:6.4023555;stroke-miterlimit:4.0062499;stroke-dasharray:none"
         xml:space="preserve"><tspan
           style="font-style:normal;font-variant:normal;font-weight:normal;font-stretch:normal;font-size:72.27548002px;line-height:1.25;font-family:'Latin Modern Math';-inkscape-font-specification:'Latin Modern Math';stroke-width:6.4023555;stroke-miterlimit:4.0062499;stroke-dasharray:none;fill:none"
           y="414.28275"
           x="-336.81503"
           id="tspan6219"
           sodipodi:role="line">. . .</tspan></text>
    </g>
    <text
       sodipodi:linespacing="0%"
       xml:space="preserve"
       style="font-style:normal;font-variant:normal;font-weight:normal;font-stretch:normal;font-size:14.75834751px;line-height:0%;font-family:'Cambria Math';-inkscape-font-specification:'Cambria Math';letter-spacing:0px;word-spacing:0px;fill:#000000;fill-opacity:1;stroke:none"
       x="521.96899"
       y="144.97858"
       id="text6323"><tspan
         sodipodi:role="line"
         id="tspan6325"
         x="521.96899"
         y="144.97858"
         style="font-style:normal;font-variant:normal;font-weight:normal;font-stretch:normal;font-size:20px;line-height:1.25;font-family:'Latin Modern Math';-inkscape-font-specification:'Latin Modern Math';">Meta-soubor</tspan></text>
    <path
       style="fill:none;fill-rule:evenodd;stroke:#000000;stroke-width:0.88582677;stroke-linecap:butt;stroke-linejoin:miter;stroke-opacity:1;marker-end:url(#Arrow2Lend);stroke-miterlimit:4.0041666;stroke-dasharray:none"
       d="m 453.61155,154.93634 0,-26.85985 -326.2208,0 0,25"
       id="path5779"
       inkscape:connector-curvature="0" />
    <path
       style="fill:none;fill-rule:evenodd;stroke:#000000;stroke-width:0.88582677;stroke-linecap:butt;stroke-linejoin:miter;stroke-opacity:1;marker-end:url(#marker6205);stroke-miterlimit:4.0041666;stroke-dasharray:none"
       d="m 435,154.93634 0,-15.43128 -349.219959,0 0,13.57143"
       id="path6293"
       inkscape:connector-curvature="0" />
    <text
       xml:space="preserve"
       style="font-style:normal;font-variant:normal;font-weight:normal;font-stretch:normal;font-size:40px;line-height:125%;font-family:'Latin Modern Math';-inkscape-font-specification:'Latin Modern Math';letter-spacing:0px;word-spacing:0px;fill:#000000;fill-opacity:1;stroke:none;stroke-width:1px;stroke-linecap:butt;stroke-linejoin:miter;stroke-opacity:1"
       x="204.28572"
       y="176.98424"
       id="text6307"
       sodipodi:linespacing="125%"><tspan
         sodipodi:role="line"
         id="tspan6309"
         x="204.28572"
         y="176.98424">. . .</tspan></text>
  </g>
</svg>
